^C:\USERS\HSCC\DOCUMENTS\GITHUB\CALCULATOR\視窗程式設計第5次作業_4105056021_賴怡呈\DEBUG\.NETFRAMEWORK,VERSION=V4.5.2.ASSEMBLYATTRIBUTES.OBJ|C:\USERS\HSCC\DOCUMENTS\GITHUB\CALCULATOR\視窗程式設計第5次作業_4105056021_賴怡呈\DEBUG\APP.RES|C:\USERS\HSCC\DOCUMENTS\GITHUB\CALCULATOR\視窗程式設計第5次作業_4105056021_賴怡呈\DEBUG\ASSEMBLYINFO.OBJ|C:\USERS\HSCC\DOCUMENTS\GITHUB\CALCULATOR\視窗程式設計第5次作業_4105056021_賴怡呈\DEBUG\INPUT.OBJ|C:\USERS\HSCC\DOCUMENTS\GITHUB\CALCULATOR\視窗程式設計第5次作業_4105056021_賴怡呈\DEBUG\MYFORM.OBJ|C:\USERS\HSCC\DOCUMENTS\GITHUB\CALCULATOR\視窗程式設計第5次作業_4105056021_賴怡呈\DEBUG\MYFORM1.OBJ|C:\USERS\HSCC\DOCUMENTS\GITHUB\CALCULATOR\視窗程式設計第5次作業_4105056021_賴怡呈\DEBUG\MYFORM2.OBJ|C:\USERS\HSCC\DOCUMENTS\GITHUB\CALCULATOR\視窗程式設計第5次作業_4105056021_賴怡呈\DEBUG\MYFORM3.OBJ|C:\USERS\HSCC\DOCUMENTS\GITHUB\CALCULATOR\視窗程式設計第5次作業_4105056021_賴怡呈\DEBUG\READFILE.OBJ|C:\USERS\HSCC\DOCUMENTS\GITHUB\CALCULATOR\視窗程式設計第5次作業_4105056021_賴怡呈\DEBUG\STDAFX.OBJ|C:\USERS\HSCC\DOCUMENTS\GITHUB\CALCULATOR\視窗程式設計第5次作業_4105056021_賴怡呈\DEBUG\視窗程式設計第5次作業_4105056021_賴怡呈.OBJ
C:\USERS\HSCC\DOCUMENTS\GITHUB\CALCULATOR\DEBUG\視窗程式設計第5次作業_4105056021_賴怡呈.EXE
C:\USERS\HSCC\DOCUMENTS\GITHUB\CALCULATOR\DEBUG\視窗程式設計第5次作業_4105056021_賴怡呈.PDB
^C:\USERS\HSCC\DOCUMENTS\GITHUB\SE_TEAMPROJECT\CALCULATOR\視窗程式設計第5次作業_4105056021_賴怡呈\DEBUG\.NETFRAMEWORK,VERSION=V4.5.2.ASSEMBLYATTRIBUTES.OBJ|C:\USERS\HSCC\DOCUMENTS\GITHUB\SE_TEAMPROJECT\CALCULATOR\視窗程式設計第5次作業_4105056021_賴怡呈\DEBUG\APP.RES|C:\USERS\HSCC\DOCUMENTS\GITHUB\SE_TEAMPROJECT\CALCULATOR\視窗程式設計第5次作業_4105056021_賴怡呈\DEBUG\ASSEMBLYINFO.OBJ|C:\USERS\HSCC\DOCUMENTS\GITHUB\SE_TEAMPROJECT\CALCULATOR\視窗程式設計第5次作業_4105056021_賴怡呈\DEBUG\INPUT.OBJ|C:\USERS\HSCC\DOCUMENTS\GITHUB\SE_TEAMPROJECT\CALCULATOR\視窗程式設計第5次作業_4105056021_賴怡呈\DEBUG\MYFORM.OBJ|C:\USERS\HSCC\DOCUMENTS\GITHUB\SE_TEAMPROJECT\CALCULATOR\視窗程式設計第5次作業_4105056021_賴怡呈\DEBUG\MYFORM1.OBJ|C:\USERS\HSCC\DOCUMENTS\GITHUB\SE_TEAMPROJECT\CALCULATOR\視窗程式設計第5次作業_4105056021_賴怡呈\DEBUG\MYFORM2.OBJ|C:\USERS\HSCC\DOCUMENTS\GITHUB\SE_TEAMPROJECT\CALCULATOR\視窗程式設計第5次作業_4105056021_賴怡呈\DEBUG\MYFORM3.OBJ|C:\USERS\HSCC\DOCUMENTS\GITHUB\SE_TEAMPROJECT\CALCULATOR\視窗程式設計第5次作業_4105056021_賴怡呈\DEBUG\READFILE.OBJ|C:\USERS\HSCC\DOCUMENTS\GITHUB\SE_TEAMPROJECT\CALCULATOR\視窗程式設計第5次作業_4105056021_賴怡呈\DEBUG\STDAFX.OBJ|C:\USERS\HSCC\DOCUMENTS\GITHUB\SE_TEAMPROJECT\CALCULATOR\視窗程式設計第5次作業_4105056021_賴怡呈\DEBUG\視窗程式設計第5次作業_4105056021_賴怡呈.OBJ
C:\USERS\HSCC\DOCUMENTS\GITHUB\SE_TEAMPROJECT\CALCULATOR\DEBUG\視窗程式設計第5次作業_4105056021_賴怡呈.EXE
C:\USERS\HSCC\DOCUMENTS\GITHUB\SE_TEAMPROJECT\CALCULATOR\DEBUG\視窗程式設計第5次作業_4105056021_賴怡呈.PDB
